State,County
ak,Anchorage
al,Madison
az,Maricopa
az,Pima
ca,Fresno
ca,Kern
ca,Orange
ca,San Bernardino
co,Douglas
co,El Paso
fl,Brevard
fl,Hillsborough
fl,Lake
fl,Pasco
fl,Volusia
ga,Cherokee
ga,Cobb
ga,Dekalb
ga,Forsyth
ga,Fulton
ga,Gwinnett
hi,Honolulu
id,Ada
il,Lake
in,Lake
ks,Johnson
ks,Sedgwick
ky,Kenton
la,St. Tammany
ma,Middlesex
md,Harford
me,Cumberland
mi,Genessee
mi,Kent
mi,Livingston
mi,Macomb
mi,Oakland
mi,Washtenaw
mi,Wayne
mn,Anoka
mn,Dakota
mn,Hennepin
mn,Ramsey
mn,Saint Louis
mn,Wright
mo,St. Charles
mt,Yellowstone
nc,Brunswick
nc,Mecklenburg
nc,New Hanover
nc,Wake
ne,Douglas
ne,Sarpy
nh,Rockingham
nj,Ocean
nm,Bernalillo
nv,Clark
nv,Washoe
ny,Erie
ny,Nassau
ny,Suffolk
oh,Franklin
ok,Oklahoma
or,Jackson
or,Marion
pa,Allegheny
pa,Berks
pa,Bucks
pa,Chester
pa,Delaware
pa,Erie
pa,Lackawanna
pa,Luzerne
pa,Montgomery
pa,Northampton
pa,Philadelphia
pa,Westmoreland
pa,York
ri,Kent
sc,Horry
tn,Rutherford
tx,Bexar
tx,Collin
tx,Dallas
tx,Denton
tx,Harris
tx,Tarrant
tx,Travis
ut,Salt Lake
ut,Utah
va,Chesterfield
va,Loudoun
va,Spotsylvania
wa,Clark
wa,Pierce
wa,Spokane
wi,Dane
wi,Milwaukee
wi,Rock
wi,Waukesha